TP de Biométrie Semestre 5 - 1 Exploration statistique des données
…
À ces 4 verbes, on ajoute en général les 3 suivants :

summarise() : pour créer des résumés de données à partir des colonnes d’un tableau

group_by() : pour effectuer des opérations pour chaque niveau d’un facteur (ou modalité d’une variable catégorielle)

count() : pour compter le nombre d’observations pour chaque niveau d’un facteur (ou modalité d’une variable catégorielle)

Voyons comment on utilise ces fonctions pour calculer des indices de statistiques descriptives pour les variables du tableau penguins :

# affichage du tableau
penguins

# A tibble: 344 × 8
   species island    bill_length_mm bill_depth_mm flipper_…¹ body_…² sex    year
   <fct>   <fct>              <dbl>         <dbl>      <int>   <int> <fct> <int>
 1 Adelie  Torgersen           39.1          18.7        181    3750 male   2007
 2 Adelie  Torgersen           39.5          17.4        186    3800 fema…  2007
 3 Adelie  Torgersen           40.3          18          195    3250 fema…  2007
 4 Adelie  Torgersen           NA            NA           NA      NA <NA>   2007
 5 Adelie  Torgersen           36.7          19.3        193    3450 fema…  2007
 6 Adelie  Torgersen           39.3          20.6        190    3650 male   2007
 7 Adelie  Torgersen           38.9          17.8        181    3625 fema…  2007
 8 Adelie  Torgersen           39.2          19.6        195    4675 male   2007
 9 Adelie  Torgersen           34.1          18.1        193    3475 <NA>   2007
10 Adelie  Torgersen           42            20.2        190    4250 <NA>   2007
# … with 334 more rows, and abbreviated variable names ¹​flipper_length_mm,
#   ²​body_mass_g
…
Examinez le tableau weather du package nycflights13 et lisez son fichier d’aide pour comprendre à quoi correspondent les données et comment elles ont été acquises.

À partir du tableau weather faites un tableau indiquant les vitesses de vents minimales, maximales et moyennes, enregistrées chaque mois dans chaque aéroport de New York. Indice : les 3 aéroports de New York sont Newark, LaGuardia Airport et John F. Kennedy, notés respectivement EWR, LGA et JFK dans la variable origin. Votre tableau devrait ressembler à ceci :

`summarise()` has grouped output by 'origin'. You can override using the
`.groups` argument.

# A tibble: 36 × 5
# Groups:   origin [3]
   origin month max_wind min_wind moy_wind
   <chr>  <int>    <dbl>    <dbl>    <dbl>
 1 EWR        1     42.6        0     9.87
 2 EWR        2   1048.         0    12.2 
 3 EWR        3     29.9        0    11.6 
 4 EWR        4     25.3        0     9.63
 5 EWR        5     33.4        0     8.49
 6 EWR        6     34.5        0     9.55
 7 EWR        7     20.7        0     9.15
 8 EWR        8     21.9        0     7.62
 9 EWR        9     23.0        0     8.03
10 EWR       10     26.5        0     8.32
# … with 26 more rows

Sachant que les vitesses du vent sont exprimées en miles par heure, certaines valeurs sont-elles surprenantes ? À l’aide de la fonction filter(), éliminez la ou les valeurs aberrantes. Vous devriez obtenir ce tableau :

`summarise()` has grouped output by 'origin'. You can override using the
`.groups` argument.

# A tibble: 36 × 5
# Groups:   origin [3]
   origin month max_wind min_wind moy_wind
   <chr>  <int>    <dbl>    <dbl>    <dbl>
 1 EWR        1     42.6        0     9.87
 2 EWR        2     31.1        0    10.7 
 3 EWR        3     29.9        0    11.6 
 4 EWR        4     25.3        0     9.63
 5 EWR        5     33.4        0     8.49
 6 EWR        6     34.5        0     9.55
 7 EWR        7     20.7        0     9.15
 8 EWR        8     21.9        0     7.62
 9 EWR        9     23.0        0     8.03
10 EWR       10     26.5        0     8.32
# … with 26 more rows
…
La notion d’intervalle de confiance à 95% est donc très proche de celle d’erreur standard. D’ailleurs, pour la plupart des grandeurs d’un échantillon, l’intervalle de confiance est très souvent calculé à partir de l’erreur standard.

1.4.3 Calcul de l’erreur standard de la moyenne

Contrairement aux indices de position et de dispersion, il n’existe pas de fonction intégrée à R qui permette de calculer l’erreur standard de la moyenne. Toutefois, sa formule très simple nous permet de la calculer à la main quand on en a besoin grâce aux fonction group_by() et summarise().

Par exemple, reprenons les données de température (tableau weather, colonne temp) dans les 3 aéroports de New York (colonne origin). Imaginons que nous souhaitions étudier les fluctuations de températures au fil des mois de l’année 2013 :

Je vais commencer par transformer les températures (fournies en degrés Fahrenheit) en degrés Celsius :

weather %>% 
  mutate(temp_celsius = (temp - 32) / 1.8)

# A tibble: 26,115 × 16
   origin  year month   day  hour  temp  dewp humid wind_dir wind_speed wind_g…¹
   <chr>  <int> <int> <int> <int> <dbl> <dbl> <dbl>    <dbl>      <dbl>    <dbl>
 1 EWR     2013     1     1     1  39.0  26.1  59.4      270      10.4        NA
 2 EWR     2013     1     1     2  39.0  27.0  61.6      250       8.06       NA
 3 EWR     2013     1     1     3  39.0  28.0  64.4      240      11.5        NA
 4 EWR     2013     1     1     4  39.9  28.0  62.2      250      12.7        NA
 5 EWR     2013     1     1     5  39.0  28.0  64.4      260      12.7        NA
 6 EWR     2013     1     1     6  37.9  28.0  67.2      240      11.5        NA
 7 EWR     2013     1     1     7  39.0  28.0  64.4      240      15.0        NA
 8 EWR     2013     1     1     8  39.9  28.0  62.2      250      10.4        NA
 9 EWR     2013     1     1     9  39.9  28.0  62.2      260      15.0        NA
10 EWR     2013     1     1    10  41    28.0  59.6      260      13.8        NA
# … with 26,105 more rows, 5 more variables: precip <dbl>, pressure <dbl>,
#   visib <dbl>, time_hour <dttm>, temp_celsius <dbl>, and abbreviated variable
#   name ¹​wind_gust

Ensuite, je détermine, pour chaque jour de chaque mois de l’année, et pour chaque aéroport, quelle est la température maximale atteinte :

weather %>% 
  mutate(temp_celsius = (temp - 32) / 1.8) %>% 
  group_by(origin, month, day) %>% 
  summarise(temperature_max = max(temp_celsius, na.rm = TRUE))

`summarise()` has grouped output by 'origin', 'month'. You can override using
the `.groups` argument.

# A tibble: 1,092 × 4
# Groups:   origin, month [36]
   origin month   day temperature_max
   <chr>  <int> <int>           <dbl>
 1 EWR        1     1            5   
 2 EWR        1     2            1.10
 3 EWR        1     3            1.10
 4 EWR        1     4            4.4 
 5 EWR        1     5            6.7 
 6 EWR        1     6            8.9 
 7 EWR        1     7            8.3 
 8 EWR        1     8            9.4 
 9 EWR        1     9           10   
10 EWR        1    10           10   
# … with 1,082 more rows

Je peux maintenant calculer la température moyenne mensuelle pour chaque aéroport :

weather %>% 
  mutate(temp_celsius = (temp - 32) / 1.8) %>% 
  group_by(origin, month, day) %>% 
  summarise(temperature_max = max(temp_celsius, na.rm = TRUE)) %>% 
  summarise(moyenne = mean(temperature_max, na.rm = TRUE))

`summarise()` has grouped output by 'origin', 'month'. You can override using
the `.groups` argument.
`summarise()` has grouped output by 'origin'. You can override using the
`.groups` argument.

# A tibble: 36 × 3
# Groups:   origin [3]
   origin month moyenne
   <chr>  <int>   <dbl>
 1 EWR        1    5.69
 2 EWR        2    4.74
 3 EWR        3    8.20
 4 EWR        4   16.4 
 5 EWR        5   22.2 
 6 EWR        6   27.4 
 7 EWR        7   31.0 
 8 EWR        8   27.8 
 9 EWR        9   24.6 
10 EWR       10   20.0 
# … with 26 more rows
…
weather %>% 
  mutate(temp_celsius = (temp - 32) / 1.8) %>% 
  group_by(origin, month, day) %>% 
  summarise(temperature_max = max(temp_celsius, na.rm = TRUE)) %>% 
  summarise(moyenne = mean(temperature_max, na.rm = TRUE),
            N_obs = n(),
            erreur_standard = sd(temperature_max, na.rm = TRUE) / sqrt(N_obs))

`summarise()` has grouped output by 'origin', 'month'. You can override using
the `.groups` argument.
`summarise()` has grouped output by 'origin'. You can override using the
`.groups` argument.

# A tibble: 36 × 5
# Groups:   origin [3]
   origin month moyenne N_obs erreur_standard
   <chr>  <int>   <dbl> <int>           <dbl>
 1 EWR        1    5.69    31           1.14 
 2 EWR        2    4.74    28           0.762
 3 EWR        3    8.20    31           0.649
 4 EWR        4   16.4     30           0.919
 5 EWR        5   22.2     31           1.02 
 6 EWR        6   27.4     30           0.769
 7 EWR        7   31.0     31           0.700
 8 EWR        8   27.8     31           0.385
 9 EWR        9   24.6     30           0.716
10 EWR       10   20.0     31           0.882
# … with 26 more rows
…
Notez que le package ggplot2 contient une fonction permettant de calculer à la fois la moyenne et erreur standard de la moyenne d’un échantillon :

weather %>% 
  mutate(temp_celsius = (temp - 32) / 1.8) %>% 
  group_by(origin, month, day) %>% 
  summarise(temperature_max = max(temp_celsius, na.rm = TRUE)) %>% 
  summarise(mean_se(temperature_max))

`summarise()` has grouped output by 'origin', 'month'. You can override using
the `.groups` argument.
`summarise()` has grouped output by 'origin'. You can override using the
`.groups` argument.

# A tibble: 36 × 5
# Groups:   origin [3]
   origin month     y  ymin  ymax
   <chr>  <int> <dbl> <dbl> <dbl>
 1 EWR        1  5.69  4.55  6.82
 2 EWR        2  4.74  3.97  5.50
 3 EWR        3  8.20  7.55  8.85
 4 EWR        4 16.4  15.5  17.4 
 5 EWR        5 22.2  21.1  23.2 
 6 EWR        6 27.4  26.6  28.1 
 7 EWR        7 31.0  30.3  31.7 
 8 EWR        8 27.8  27.4  28.2 
 9 EWR        9 24.6  23.9  25.3 
10 EWR       10 20.0  19.1  20.9 
# … with 26 more rows
…
Autrement dit, la vraie moyenne \(\mu\) d’une population a de bonnes chances de se trouver dans un intervalle de plus ou moins 1.96 fois l’erreur standard de la moyenne. En première approximation, l’intervalle de confiance est donc la moyenne de l’échantillon \(\bar{x}\) plus ou moins 2 fois l’erreur standard (que nous avons appris à calculer à la main un peu plus tôt). On peut donc calculer à la main les bornes inférieures et supérieures de l’intervalle de confiance ainsi :

weather %>% 
  mutate(temp_celsius = (temp - 32) / 1.8) %>% 
  group_by(origin, month, day) %>% 
  summarise(temperature_max = max(temp_celsius, na.rm = TRUE)) %>% 
  summarise(mean_se(temperature_max, mult = 1.96))

`summarise()` has grouped output by 'origin', 'month'. You can override using
the `.groups` argument.
`summarise()` has grouped output by 'origin'. You can override using the
`.groups` argument.

# A tibble: 36 × 5
# Groups:   origin [3]
   origin month     y  ymin  ymax
   <chr>  <int> <dbl> <dbl> <dbl>
 1 EWR        1  5.69  3.46  7.92
 2 EWR        2  4.74  3.24  6.23
 3 EWR        3  8.20  6.93  9.47
 4 EWR        4 16.4  14.6  18.2 
 5 EWR        5 22.2  20.1  24.2 
 6 EWR        6 27.4  25.8  28.9 
 7 EWR        7 31.0  29.6  32.3 
 8 EWR        8 27.8  27.0  28.5 
 9 EWR        9 24.6  23.2  26.0 
10 EWR       10 20.0  18.3  21.7 
# … with 26 more rows
…
Dans la pratique, puisque cette méthode reste approximative et dépend de la nature des données dont on dispose, on utilisera plutôt des fonctions spécifiques qui calculeront pour nous les intervalles de confiance à 95% de nos estimateurs. C’est ce que permet en particulier la fonction mean_cl_normal() du package ggplot2. Il est toutefois important de bien comprendre qu’il y a un lien étroit entre l’erreur standard (l’incertitude associées à l’estimation d’un paramètre d’une population à partir des données d’un échantillon), et l’intervalle de confiance à 95% de ce paramètre.

weather %>% 
  mutate(temp_celsius = (temp - 32) / 1.8) %>% 
  group_by(origin, month, day) %>% 
  summarise(temperature_max = max(temp_celsius, na.rm = TRUE)) %>% 
  summarise(mean_cl_normal(temperature_max))

`summarise()` has grouped output by 'origin', 'month'. You can override using
the `.groups` argument.
`summarise()` has grouped output by 'origin'. You can override using the
`.groups` argument.

# A tibble: 36 × 5
# Groups:   origin [3]
   origin month     y  ymin  ymax
   <chr>  <int> <dbl> <dbl> <dbl>
 1 EWR        1  5.69  3.36  8.01
 2 EWR        2  4.74  3.17  6.30
 3 EWR        3  8.20  6.88  9.53
 4 EWR        4 16.4  14.6  18.3 
 5 EWR        5 22.2  20.1  24.2 
 6 EWR        6 27.4  25.8  28.9 
 7 EWR        7 31.0  29.5  32.4 
 8 EWR        8 27.8  27.0  28.6 
 9 EWR        9 24.6  23.1  26.0 
10 EWR       10 20.0  18.2  21.8 
# … with 26 more rows
Comme dans les tableaux précédents, 3 nouvelles colonnes ont été crées :

y contient toujours la moyenne des températures mensuelles pour chaque aéroport

ymin contient maintenant les bornes inférieures de l’intervalle à 95% des moyennes

ymax contient maintenant les bornes supérieures de l’intervalle à 95% des moyennes

Pour que la suite soit plus claire, nous allons afficher et donner des noms à ces différents tableaux en prenant soin de renommer les colonnes pour plus de clarté.

Tout d’abord, nous disposons du tableau temperatures_se, qui contient, les moyennes des températures mensuelles de chaque aéroport de New York en 2013, et les erreurs standard de ces moyennes :

temperatures_se

# A tibble: 36 × 5
# Groups:   origin [3]
   origin month moyenne N_obs erreur_standard
   <chr>  <int>   <dbl> <int>           <dbl>
 1 EWR        1    5.69    31           1.14 
 2 EWR        2    4.74    28           0.762
 3 EWR        3    8.20    31           0.649
 4 EWR        4   16.4     30           0.919
 5 EWR        5   22.2     31           1.02 
 6 EWR        6   27.4     30           0.769
 7 EWR        7   31.0     31           0.700
 8 EWR        8   27.8     31           0.385
 9 EWR        9   24.6     30           0.716
10 EWR       10   20.0     31           0.882
# … with 26 more rows
…
`summarise()` has grouped output by 'origin', 'month'. You can override using
the `.groups` argument.
`summarise()` has grouped output by 'origin'. You can override using the
`.groups` argument.

temperature_se_bornes

# A tibble: 36 × 5
# Groups:   origin [3]
   origin month moyenne moyenne_moins_se moyenne_plus_se
   <chr>  <int>   <dbl>            <dbl>           <dbl>
 1 EWR        1    5.69             4.55            6.82
 2 EWR        2    4.74             3.97            5.50
 3 EWR        3    8.20             7.55            8.85
 4 EWR        4   16.4             15.5            17.4 
 5 EWR        5   22.2             21.1            23.2 
 6 EWR        6   27.4             26.6            28.1 
 7 EWR        7   31.0             30.3            31.7 
 8 EWR        8   27.8             27.4            28.2 
 9 EWR        9   24.6             23.9            25.3 
10 EWR       10   20.0             19.1            20.9 
# … with 26 more rows
…
`summarise()` has grouped output by 'origin', 'month'. You can override using
the `.groups` argument.
`summarise()` has grouped output by 'origin'. You can override using the
`.groups` argument.

temperature_ci_approx

# A tibble: 36 × 5
# Groups:   origin [3]
   origin month moyenne ci_borne_inf ci_borne_sup
   <chr>  <int>   <dbl>        <dbl>        <dbl>
 1 EWR        1    5.69         3.46         7.92
 2 EWR        2    4.74         3.24         6.23
 3 EWR        3    8.20         6.93         9.47
 4 EWR        4   16.4         14.6         18.2 
 5 EWR        5   22.2         20.1         24.2 
 6 EWR        6   27.4         25.8         28.9 
 7 EWR        7   31.0         29.6         32.3 
 8 EWR        8   27.8         27.0         28.5 
 9 EWR        9   24.6         23.2         26.0 
10 EWR       10   20.0         18.3         21.7 
# … with 26 more rows
…
`summarise()` has grouped output by 'origin', 'month'. You can override using
the `.groups` argument.
`summarise()` has grouped output by 'origin'. You can override using the
`.groups` argument.

temperature_ci

# A tibble: 36 × 5
# Groups:   origin [3]
   origin month moyenne ci_borne_inf ci_borne_sup
   <chr>  <int>   <dbl>        <dbl>        <dbl>
 1 EWR        1    5.69         3.36         8.01
 2 EWR        2    4.74         3.17         6.30
 3 EWR        3    8.20         6.88         9.53
 4 EWR        4   16.4         14.6         18.3 
 5 EWR        5   22.2         20.1         24.2 
 6 EWR        6   27.4         25.8         28.9 
 7 EWR        7   31.0         29.5         32.4 
 8 EWR        8   27.8         27.0         28.6 
 9 EWR        9   24.6         23.1         26.0 
10 EWR       10   20.0         18.2         21.8 
# … with 26 more rows

Maintenant, si l’on compare les 2 tableaux contenant les calculs d’intervalles de confiance de la moyenne, on constate que les résultats sont très proches :

temperature_ci_approx
temperature_ci

# A tibble: 36 × 5
# Groups:   origin [3]
   origin month moyenne ci_borne_inf ci_borne_sup
   <chr>  <int>   <dbl>        <dbl>        <dbl>
 1 EWR        1    5.69         3.46         7.92
 2 EWR        2    4.74         3.24         6.23
 3 EWR        3    8.20         6.93         9.47
 4 EWR        4   16.4         14.6         18.2 
 5 EWR        5   22.2         20.1         24.2 
 6 EWR        6   27.4         25.8         28.9 
 7 EWR        7   31.0         29.6         32.3 
 8 EWR        8   27.8         27.0         28.5 
 9 EWR        9   24.6         23.2         26.0 
10 EWR       10   20.0         18.3         21.7 
# … with 26 more rows

# A tibble: 36 × 5
# Groups:   origin [3]
   origin month moyenne ci_borne_inf ci_borne_sup
   <chr>  <int>   <dbl>        <dbl>        <dbl>
 1 EWR        1    5.69         3.36         8.01
 2 EWR        2    4.74         3.17         6.30
 3 EWR        3    8.20         6.88         9.53
 4 EWR        4   16.4         14.6         18.3 
 5 EWR        5   22.2         20.1         24.2 
 6 EWR        6   27.4         25.8         28.9 
 7 EWR        7   31.0         29.5         32.4 
 8 EWR        8   27.8         27.0         28.6 
 9 EWR        9   24.6         23.1         26.0 
10 EWR       10   20.0         18.2         21.8 
# … with 26 more rows
…
