TP de Biométrie Semestre 5 - 4 Analyse de cohortes
…
Pour importer les données, utilisez l’assistant d’importation de RStudio. Notez que :

Les colonnes sont séparées par des tabulations

Le symbole utilisé pour les décimales dans le fichier Nassarius.csv est la virgule

Vous devrez donc spécifier correctement ces éléments pour pouvoir importer le fichier dans le logiciel. Si vous ne savez plus comment faire, reportez-vous au chapitre correspondant du livre en ligne de Biométrie du semestre 3.

Si l’importation s’est déroulée normalement, vous devriez maintenant disposer de l’objet nommé Nassarius suivant :

Nassarius

# A tibble: 3,710 × 2
    size date    
   <dbl> <chr>   
 1  4.8  march-10
 2  3    march-10
 3  5.56 march-10
 4  3.74 march-10
 5  4.1  march-10
 6  2.21 march-10
 7  2.75 march-10
 8  3.18 march-10
 9  2.56 march-10
10  4.36 march-10
# ℹ 3,700 more rows
…
Déterminer l’abondance des individus de la cohorte d’intérêt, à chaque date d’échantillonnage, pour produire la courbe de survie

Je vais présenter ci-dessous les étapes de cette procédure pour une unique date d’échantillonnage : march 2010. Vous devrez reproduire ces étapes pour les 9 autres dates d’échantillonnage.

4.5 Sélection des données d’une date spécifique

Notre jeu de données Nassrisu contient 2 colonnes : la première contient les dates d’échantillonnage et la seconde les tailles individuelles en millimètres. La première étape consiste à créer un nouvel objet (nous le nommerons Nas_01) qui contiendra uniquement les données collectées lors de la toute première session d’échantillonnage de mars 2010. Vous devriez déjà savoir comment utiliser la fonction filter() pour le faire :

Nas_01 <- Nassarius %>%
  filter(date == "march-10")

Nas_01

# A tibble: 468 × 2
    size date    
   <dbl> <chr>   
 1  4.8  march-10
 2  3    march-10
 3  5.56 march-10
 4  3.74 march-10
 5  4.1  march-10
 6  2.21 march-10
 7  2.75 march-10
 8  3.18 march-10
 9  2.56 march-10
10  4.36 march-10
# ℹ 458 more rows
…
