TP de Biométrie Semestre 5 - 5 Systèmes dynamiques
…
Fixez le taux de mortalité instantanée à \(m = 0.05\) (à chaque pas de temps, 5% de la population disparaît)

Placez l’abondance initiale à la première position de N

Créez une boucle for pour calculer et placer dans N l’abondance de la population pour 100 pas de temps

Créez un tibble nommé res contenant 2 variables (Generation et Abondance) en utilisant cette commande :

# Création d'un tibble où les résultats seront stockés
res <- tibble(Generation = 0:100, N)

Si votre script est correct et qu’il s’exécute sans erreur, l’objet res devrait contenir 101 lignes, avec 101 valeurs d’abondance. Les premières lignes de res devraient contenir ces valeurs :

# A tibble: 101 × 2
   Generation     N
        <int> <dbl>
 1          0 10   
 2          1  9.5 
 3          2  9.02
 4          3  8.57
 5          4  8.15
 6          5  7.74
 7          6  7.35
 8          7  6.98
 9          8  6.63
10          9  6.30
# ℹ 91 more rows
…
Enfin, essayez de changer la valeur de \(m\) et de relancer le script. Faites des essais avec plusieurs valeurs. Qu’observe-t-on quand la valeur de \(m\) se rapproche de 1 ? Est-ce normal ? Et que se passe-t-il si \(m > 1\) ? Est-ce réaliste ? Pourquoi ? Mêmes questions avec \(m = 2\) et \(m = 3\) ?

5.5 Modèle de croissance exponentielle

Comme nous l’avons vu dans le cours, le modèle de croissance exponentielle est défini par l’équation suivante :

\[\frac{\mathrm{d}N}{\mathrm{d}t} = rN\] Avec \(N\), l’abondance de la population étudiée, \(t\), le temps et \(r\) le taux de croissance instantané. Pour coder ce modèle dans RStudio, vous devez vous rappeler de la signification de cette équation différentielle. Elle indique que dans un intervalle de temps très court \(\mathrm{d}t\), la variation de l’abondance de la population \(\mathrm{d}N\) vaut \(+rN\). Autrement dit, entre 2 temps d’observation successifs (par exemple entre \(t\) et \(t + 1\), ou entre \(t - 1\) et \(t\)), l’abondance de la population passe de \(N\) à \(N + rN\). Ce modèle peut donc être décrit par l’équation de récurrence suivante :

\[N_{t+1} = N_t + r \times N_t\] ce qui est évidemment équivalent à

\[N_{t} = N_{t - 1} + r \times N_{t - 1}\] Cette dernière équation peut se lire ainsi : l’abondance au temps \(t\) (\(N_t\)) est égale à l’abondance au temps précédent \(N_{t-1}\), plus la variation d’abondance entre 2 pas de temps successifs (\(+r\times N_{t-1}\)). Vous devez utiliser cette équation pour construire le modèle de mortalité exponentielle à l’intérieur d’une boucle for comme dans le dernier exemple de la Section 5.3. Ici, on cherche donc à déterminer la nouvelle valeur de la variable (\(N\) au temps \(t\)) en utilisant la valeur de la même variable mais au temps précédent (\(N\) au temps \(t-1\)).

Vous fixerez l’abondance initiale à \(N_0 = 5\) et le taux de croissance instantané à \(r = 0.03\). Vous calculerez l’abondance de la population pour 100 pas de temps. Vous devriez ainsi obtenir les résultats suivants :

# A tibble: 101 × 2
   Generation     N
        <int> <dbl>
 1          0  5   
 2          1  5.15
 3          2  5.30
 4          3  5.46
 5          4  5.63
 6          5  5.80
 7          6  5.97
 8          7  6.15
 9          8  6.33
10          9  6.52
# ℹ 91 more rows
…
\[N_{t} = N_{t - 1} + \cdots{}\] Rappelez-vous que la nouvelle abondance (au temps \(t\)) est égale à l’ancienne (au temps \(t-1\)), plus la variation d’abondance entre 2 pas de temps successifs, la formule de la variation étant fournie par la formule \(\frac{\mathrm{d}N}{\mathrm{d}t} = \cdots{}\)

Vous devez donc modifier le script de la Section 5.5 pour ajouter le terme d’auto-limitation lié à l’environnement \(\frac{r}{K}\times N^2\). Vous utiliserez les valeurs suivantes pour les conditions initiales et les paramètres du modèle :

\(N_0 = 1\)

\(r = 0.05\)

\(K = 80\)

durée de la simulation : 200 pas de temps

Vous devriez ainsi obtenir les résultats suivants :

# A tibble: 201 × 2
   Generation     N
        <int> <dbl>
 1          0  1   
 2          1  1.05
 3          2  1.10
 4          3  1.16
 5          4  1.21
 6          5  1.27
 7          6  1.33
 8          7  1.40
 9          8  1.47
10          9  1.54
# ℹ 191 more rows
…
Figure 5.5: Modèle de Lotka-Volterra avec \(X_0 = 1\), \(Y_0 = 10\), \(r = 0.05\), \(m = 0.05\), \(K = 80\) et \(c_1 = c_2 = 0.01\).

Pour produire ce graphique, vous aurez besoin de transformer le tableau res en format long. Une colonne Espece devra contenir soit X, soit Y, et une colonne Abondance devra contenir toutes les valeurs d’abondance des 2 espèces. Si vous ne savez plus comment faire, relisez le chapitre 1.3 du livre en ligne du semestre 4. Voilà à quoi devraient ressembler les premières lignes de votre tableau :

res_long

# A tibble: 2,002 × 3
   Generation Espece Abondance
        <int> <chr>      <dbl>
 1          0 X          1    
 2          0 Y         10    
 3          1 X          0.949
 4          1 Y          9.6  
 5          2 X          0.904
 6          2 Y          9.21 
 7          3 X          0.866
 8          3 Y          8.83 
 9          4 X          0.832
10          4 Y          8.47 
# ℹ 1,992 more rows
…
